
1,Aadhaar_1.png
2,Admin_2.png
3,Back_3.png
4,Battery_Charging_4.png
5,Battery_not_charging_5.png
6,Bills_6.png
7,Camera_7.png
8,Deposit_8.png
9,Fingers_9.png
10,Home_10.png
11,Internet_11.png
12,Iris_12.png
13,Local_Bio_13.png
14,Login_14.png
15,Logout_15.png
16,Mute_16.png
17,Next_17.png
18,Operator_Female_18.png
19,Operator_Male_19.png
20,Password_20.png
21,Print_21.png
22,Supervisor_22.png
23,Volume_23.png
24,Yes_24.png
25,One_25.png
26,Two_26.png
27,Three_27.png
28,Four_28.png
29,Five_29.png
30,Six_30.png
31,Seven_31.png
32,Eight_32.png
33,Nine_33.png
34,Ten_34.png
35,Withdraw_35.png
36,Cancel_36.png
37,Entry_37.png
38,Exit_38.png
39,Proceed_39.png
40,Exit_40.png
41,Entry_41.png
42,Proceed_42.png
43,Edit_user_43.png
44,Add_user_44.png
45,Operation_45.png
46,User_id_46.png
47,Language_47.png
48,Lock_48.png
49,Unlock_49.png
50,More_50.png
51,Primary_51.png
52,Secondary_52.png
53,Setting_53.png
54,Report_54.png
55,HW_check_55.png
56,Pg_Up_56.png
57,Pg_Down_57.png
58,Return_58.png
59,Receipt_59.png
60,Exit_to-Apnaseva_60.png
61,Exit_to_services_61.png
62,Ok_62.png
63,Enrol_63.png
64,QR_scan_64.png
65,Print_65.png
66,Pay_66.png
67,Done_67.png
68,Done_rev_68.png
69,Clear_69.png
70,Failed_70.png
71,logo_bw_71.png
72,logo_wb_72.bmp
73,Retry_73.png
74,Srishti AS_74.png
75,srishtiAs-Inv_75.bmp
76,Recheck_76.png
77,Landline_77.png
78,Mobile_78.png
79,DTH_79.png
80,Datacard_80.png
1001,MyNetBankLogo.png
1002,MyBillPayLogo.png
1003,eServices
1004,MyGovLogo.png
1005,MyMicroATMLogo.Png
1006,MyeCommerceLogo.png
1007,MobileSAMLogo.png
1008,eCommunity
1009,Aadhaar_1.png
1010,AAPNA SEVA
1011,MyMatrimonyLogo.png
1012,MyTravelLogo.png
1013,MyWorldLogo.png
1014,MyNetPayLogo.png
1015,ePDSLogo.png
1016,AapnaWorldLogo.png
1017,Aadhaar_1.png
1018,SQPay.png
10201,SBILogo.png
10202,CorpBankLogo.png
10203,BankOfMaharashtraLogo.png
10204,BankOfBarodaLogo.png
10205,VijayaBankLogo.png
10206,SyndicateBankLogo.png
10207,HDFCBankLogo.png
10208,ICICIBankLogo.png
10209,CanaraBankLogo.png
10210,CitibankLogo.png
10211,DeutscheBankLogo.png
10212,BankofIndiaLogo.png
10213,KarnatakaBankLogo.png
10214,BandhanBankLogo.png
10215,StateBankOfMysoreLogo.png
10216,SBHLogo.png
10217,UnitedBankOfIndiaLogo.png
10218,DhanlaxmiBankLogo.png
10219,IDBIBankLogo.png
10220,PNBLogo.png
10401,MyGovLogo.png
10402,APNACSCLogo.png
10403,CSCLogo.png
10404,DSTLogo.png
10405,DeityLogo.png
10406,RTILogo.png
10407,BangloreoneLogo.png
10408,karnatakaMobileOneLogo.png
10409,KarnatakaOneLogo.png
10410,Aadhaar_1.png
10411,Aadhaar_1.png
10412,GovKarLogo.png
10601,flipkartLogo.png
10602,amazonLogo.png
10603,snapdealLogo.png
10604,ebayLogo.png
10605,paytmLogo.png
10606,bigbasketLogo.png
10607,OLXLogo.png
10608,quikrLogo.png
10609,TogoFogoLogo.png
10801,IiitbLogo.png
11001,IndianRailwaysLogo.png
11002,IRCTCLogo.png
11003,MSRTCLogo.png
11004,KSRTCLogo.png
11005,RedbusLogo.png
11006,MakeMyTripLogo.png
11201,shaadiLogo.png
11401,NewsHuntLogo.png
11402,FbLogo.png
11403,GoogleLogo.png
11601,AircelLogo.png
11602,AirtelLogo.png
11603,BsnlLogo.png
11604,VodafoneLogo.png
11801,GmailLogo.png