1006,1,1,1,10601,10601,1,2,http://www.flipkart.com/
1006,1,1,1,10602,10602,1,2,http://www.amazon.in/
1006,1,1,1,10603,10603,1,2,http://www.snapdeal.com/
1006,1,1,1,10604,10604,1,2,http://www.ebay.in/
1006,1,1,1,10605,10605,1,2,https://paytm.com/
1006,1,1,1,10606,10606,1,2,http://bigbasket.com/
1006,1,1,1,10607,10607,1,2,http://olx.in/
1006,1,1,1,10608,10608,1,2,http://www.quikr.com/
1006,1,1,1,10609,10609,1,2,https://www.togofogo.com/