1014,1,1,1,11601,11601,1,2,https://epayment.aircel.com/online-recharge/
1014,1,1,1,11602,11602,1,2,http://www.airtel.in/
1014,1,1,1,11603,11603,1,2,http://portal3.bsnl.in/myportal/quickrecharge.do
1014,1,1,1,11604,11604,1,2,https://shop.vodafone.in/shop/prepaid/recharge-online.jsp